{
  "totalItems": 55,
  "size": 5,
  "totalPages": 11,
  "currentPage": 0,
  "users": [
    {
      "id": 442,
      "fullName": "Karen Berg",
      "organisationUnitName": "VGMIDT Midtbyen videregående skole",
      "organisationUnitId": "194",
      "userType": "STUDENT"
    },
    {
      "id": 443,
      "fullName": "Karen Bergen",
      "organisationUnitName": "VGMIDT Midtbyen videregående skole",
      "organisationUnitId": "194",
      "userType": "EMPLOYEE"
    },
    {
      "id": 105,
      "fullName": "Marie Henriksen",
      "organisationUnitName": "VGMIDT Realfag",
      "organisationUnitId": "204",
      "userType": "EMPLOYEE"
    },
    {
      "id": 109,
      "fullName": "Hans Berg",
      "organisationUnitName": "VGMIDT Realfag",
      "organisationUnitId": "204",
      "userType": "EMPLOYEE"
    },
    {
      "id": 113,
      "fullName": "Ingar Johansen",
      "organisationUnitName": "VGMIDT Realfag",
      "organisationUnitId": "204",
      "userType": "EMPLOYEE"
    }
  ]
}